day14/day14.vcd
$date
	Sun Jul  3 17:26:06 2022
$end
$version
	Icarus Verilog
$end
$timescale
	1s
$end
$scope module day14_tb $end
$var wire 8 ! gnt_o [7:0] $end
$var parameter 32 " NUM_PORTS $end
$var reg 8 # req_i [7:0] $end
$scope module DAY14 $end
$var wire 8 $ req_i [7:0] $end
$var wire 8 % gnt_o [7:0] $end
$var parameter 32 & NUM_PORTS $end
$scope begin genblk1[1] $end
$var parameter 2 ' i $end
$upscope $end
$scope begin genblk1[2] $end
$var parameter 3 ( i $end
$upscope $end
$scope begin genblk1[3] $end
$var parameter 3 ) i $end
$upscope $end
$scope begin genblk1[4] $end
$var parameter 4 * i $end
$upscope $end
$scope begin genblk1[5] $end
$var parameter 4 + i $end
$upscope $end
$scope begin genblk1[6] $end
$var parameter 4 , i $end
$upscope $end
$scope begin genblk1[7] $end
$var parameter 4 - i $end
$upscope $end
$upscope $end
$scope begin $ivl_for_loop0 $end
$var integer 32 . i [31:0] $end
$upscope $end
$upscope $end
$enddefinitions $end
$comment Show the parameter values. $end
$dumpall
b111 -
b110 ,
b101 +
b100 *
b11 )
b10 (
b1 '
b1000 &
b1000 "
$end
#0
$dumpvars
b0 .
b10 %
b10010010 $
b10010010 #
b10 !
$end
#5
b1000000 !
b1000000 %
b1000000 #
b1000000 $
b1 .
#10
b100 !
b100 %
b100 #
b100 $
b10 .
#15
b1 !
b1 %
b110001 #
b110001 $
b11 .
#20
b10 !
b10 %
b10000110 #
b10000110 $
b100 .
#25
b11000110 #
b11000110 $
b101 .
#30
b110010 #
b110010 $
b110 .
#35
b1 !
b1 %
b1001 #
b1001 $
b111 .
#40
b10000000 !
b10000000 %
b10000000 #
b10000000 $
b1000 .
#45
b10 !
b10 %
b10000110 #
b10000110 $
b1001 .
#50
b1 !
b1 %
b10111011 #
b10111011 $
b1010 .
#55
b10 !
b10 %
b10011110 #
b10011110 $
b1011 .
#60
b11110110 #
b11110110 $
b1100 .
#65
b11000110 #
b11000110 $
b1101 .
#70
b100 !
b100 %
b11111100 #
b11111100 $
b1110 .
#75
b1 !
b1 %
b1100011 #
b1100011 $
b1111 .
#80
b10 !
b10 %
b1100010 #
b1100010 $
b10000 .
#85
b1 !
b1 %
b1010101 #
b1010101 $
b10001 .
#90
b10 !
b10 %
b11110010 #
b11110010 $
b10010 .
#95
b1 !
b1 %
b111011 #
b111011 $
b10011 .
#100
b1001 #
b1001 $
b10100 .
#105
b11000111 #
b11000111 $
b10101 .
#110
b11111001 #
b11111001 $
b10110 .
#115
b1100111 #
b1100111 $
b10111 .
#120
b100 !
b100 %
b1110100 #
b1110100 $
b11000 .
#125
b10 !
b10 %
b1100010 #
b1100010 $
b11001 .
#130
b10101110 #
b10101110 $
b11010 .
#135
b1011110 #
b1011110 $
b11011 .
#140
b10110 #
b10110 $
b11100 .
#145
b110010 #
b110010 $
b11101 .
#150
b1 !
b1 %
b110001 #
b110001 $
b11110 .
#155
b10000101 #
b10000101 $
b11111 .
#160
b100000 .
